Mobile Device Usage
…
Mobile Device Usage

Exploratory Data Analysis Of Mobile Device Usage Data

The purpose of this document is to use summary statistics and plots to better understand the mobile device usage data, then to use the knowledge to inform the creation of an app that allows users to explore the data themselves. To start this process the data has been downloaded from Kaggle.com and will be read in using functions from the tidyverse.

# loading in relevant packages
library(tidyverse)
library(GGally) # will be used to create scatter plot matrices

# reading in data
device_data <- read_csv("user_behavior_dataset.csv")
device_data

# A tibble: 700 × 11
   `User ID` `Device Model`     `Operating System` `App Usage Time (min/day)`
       <dbl> <chr>              <chr>                                   <dbl>
 1         1 Google Pixel 5     Android                                   393
 2         2 OnePlus 9          Android                                   268
 3         3 Xiaomi Mi 11       Android                                   154
 4         4 Google Pixel 5     Android                                   239
 5         5 iPhone 12          iOS                                       187
 6         6 Google Pixel 5     Android                                    99
 7         7 Samsung Galaxy S21 Android                                   350
 8         8 OnePlus 9          Android                                   543
 9         9 Samsung Galaxy S21 Android                                   340
10        10 iPhone 12          iOS                                       424
# ℹ 690 more rows
# ℹ 7 more variables: `Screen On Time (hours/day)` <dbl>,
#   `Battery Drain (mAh/day)` <dbl>, `Number of Apps Installed` <dbl>,
#   `Data Usage (MB/day)` <dbl>, Age <dbl>, Gender <chr>,
#   `User Behavior Class` <dbl>
…
